{
  "name": "bs-bs58",
  "version": "0.1.0",
  "sources": {
      "dir": "src",
      "subdirs" : true
  },
  "package-specs": {
    "module": "commonjs",
    "in-source": true
  },
  "suffix": ".bs.js",
  "bs-dependencies": [
   ]
}